{
  "build_from": {
    "aarch64": "arm64v8/alpine:3.12.1",
    "amd64": "amd64/alpine:3.12.1",
    "armhf": "arm32v6/alpine:3.12.1",
    "armv7": "arm32v7/alpine:3.12.1",
    "i386": "i386/alpine:3.12.1"
  }
}
